5c4a32cde0ce4b37be805ed20580600c
…
The data for this project is from the past five years of full seasons
(excluding the COVID shortened 2020 season). This data can be seen in
the dataset below, with each team, how many games they won, and how many
games they were predicted to win from each model.

using CSV, DataFrames

el = CSV.read("/Users/jackmerchen/Data/Projected _Wins.csv", DataFrame)

this_year = filter(row -> row.Actual > 2022, el)
elo = filter(row -> row.Actual < 2023, el)
show(elo)

150×5 DataFrame
 Row │ Team          Actual  ELO    PECOTA  ESPN  
     │ String15      Int64   Int64  Int64   Int64 
─────┼────────────────────────────────────────────
   1 │ Yankees           99     92      99     94
   2 │ Red Sox           78     86      86     87
   3 │ Orioles           83     62      61     58
   4 │ Tigers            66     73      67     74
   5 │ Guardians         92     78      76     77
   6 │ White Sox         81     91      95     93
   7 │ Royals            65     73      69     71
   8 │ Twins             78     83      86     81
   9 │ Rangers           68     72      70     69
  10 │ Astros           106     92      90     95
  11 │ Mariners          90     80      83     82
  ⋮  │      ⋮          ⋮       ⋮      ⋮       ⋮
 141 │ Cardinals         83     81      78     85
 142 │ Reds              68     72      74     73
 143 │ Pirates           75     81      81     83
 144 │ Mets              70     87      89     85
 145 │ Phillies          66     70      73     67
 146 │ Braves            72     74      76     68
 147 │ Blue Jays         76     84      81     87
 148 │ Marlins           77     80      77     75
 149 │ Nationals         97     92      88     89
 150 │ Rays              80     81      84     82
                                  129 rows omitted
…
new = DataFrames.select(elo, Not("Team"))

function splitdf(df, pct)
    @assert 0 <= pct <= 1
    ids = collect(axes(df, 1))
    shuffle!(ids)
    per = ids .<= nrow(df) .* pct
    test = view(df, per, :)
    train = view(df, .!per, :)
    return test, train
end

train, test = splitdf(new, .8)

(120×4 SubDataFrame
 Row │ Actual  ELO    PECOTA  ESPN  
     │ Int64   Int64  Int64   Int64 
─────┼──────────────────────────────
   1 │     99     92      99     94
   2 │     83     62      61     58
   3 │     66     73      67     74
   4 │     92     78      76     77
   5 │     65     73      69     71
   6 │     78     83      86     81
   7 │     68     72      70     69
   8 │    106     92      90     95
   9 │     60     69      71     68
  10 │     73     84      88     82
  11 │     81     84      78     85
  ⋮  │   ⋮       ⋮      ⋮       ⋮
 111 │     87     75      76     82
 112 │     86     74      78     74
 113 │     83     81      78     85
 114 │     68     72      74     73
 115 │     75     81      81     83
 116 │     70     87      89     85
 117 │     66     70      73     67
 118 │     72     74      76     68
 119 │     97     92      88     89
 120 │     80     81      84     82
                     99 rows omitted, 30×4 SubDataFrame
…
elo[!, :el_err] = abs.(elo.Actual - elo.ELO)
elo[!, :pec_err] = abs.(elo.Actual - elo.PECOTA)
elo[!, :espn_err] = abs.(elo.Actual - elo.ESPN)
grp = groupby(elo, "Actual")
select!(grp, ["Actual", "el_err", "pec_err", "espn_err"])
cols = names(grp)
data_cols = cols[2:end]
err_df = combine(grp, data_cols .=> mean .=> data_cols)
show(err_df)

54×4 DataFrame
 Row │ Actual  el_err    pec_err   espn_err 
     │ Int64   Float64   Float64   Float64  
─────┼──────────────────────────────────────
   1 │     47  23.0      21.5      26.0
   2 │     52  17.5      20.5      18.0
   3 │     54   6.0       3.0      10.0
   4 │     55  17.0      16.0      14.0
   5 │     57   7.0       9.0       9.0
   6 │     58  12.0       7.0      11.0
   7 │     59  11.0      12.0      11.0
   8 │     60   9.5       9.0      10.5
   9 │     61   3.0       0.0       2.0
  10 │     62  10.3333   10.3333    8.33333
  11 │     63   4.0       2.0       1.0
  ⋮  │   ⋮        ⋮         ⋮         ⋮
  45 │     99   7.0       0.0       5.0
  46 │    100   8.5       8.5      11.0
  47 │    101  13.25     12.25     13.75
  48 │    102   8.0      10.0      15.0
  49 │    103   6.0       5.5       8.5
  50 │    104   9.0       7.0      11.0
  51 │    106   9.33333  10.0       8.33333
  52 │    107  21.0      20.0      25.0
  53 │    108  17.0      19.0      18.0
  54 │    111  12.0      13.0      10.0
                             33 rows omitted
…
